id,name,model_id:id,group_id:id,perm_read,perm_write,perm_create,perm_unlink
access_sale_order_line_make_invoice,access_sale_order_line_make_invoice,model_sale_order_line_make_invoice,base.group_sale_salesman,1,1,1,1
access_sale_advance_payment_inv,access_sale_advance_payment_inv,model_sale_advance_payment_inv,base.group_sale_salesman,1,1,1,1
access_partner_route,access_partner_route,model_partner_route,base.group_user,1,1,1,1
access_peso_lines,access_peso_lines,model_peso_lines,base.group_sale_salesman,1,1,1,1
access_peso_lines,access_peso_lines,model_peso_lines,base.group_user,1,1,1,1
access_history_lines,access_history_lines,model_history_lines,base.group_sale_salesman,1,1,1,1
access_stock_split_box,access_stock_split_box,model_stock_split_box,purchase.group_purchase_manager,1,1,1,1
access_stock_split_box_wizard,access_stock_split_box_wizard,model_stock_split_box_wizard,,1,1,1,1
access_stock_split_box,access_stock_split_box,model_stock_split_box,stock.group_stock_manager,1,1,1,1
access_stock_split_box_wizard,access_stock_split_box_wizard,model_stock_split_box_wizard,stock.group_stock_manager,1,1,1,1
